SDS348 Project 1: Exploratory Data Analysis with Tidyverse Tools
…
As of March 14, 2020, total cumulative cases worldwide is 156102, with 5819 deaths and 72624 recovered (Table 5). The average death rate worldwide is 3.73%, while the average recovery rate is 46.52% (Table 6).

## Summary statistics

## summary stats for number of confirmed cases, deaths, and
## recovered by country/region and province/state
table_ns <- asoftoday %>% summarize(`Mean of confirmed cases` = mean(`confirmed cases as of 3/14/20`), 
    `Median of confirmed cases` = median(`confirmed cases as of 3/14/20`), 
    `Mean of deaths` = mean(`deaths as of 3/14/20`), `Median of deaths` = median(`deaths as of 3/14/20`), 
    `Mean of recovered` = mean(`recovered as of 3/14/20`), `Median of recovered` = median(`recovered as of 3/14/20`))

print(table_ns)

## # A tibble: 306 x 7
##    `Province/State` `Mean of confir~ `Median of conf~ `Mean of deaths`
##    <fct>                       <dbl>            <dbl>            <dbl>
##  1 ""                           480.               18             18.1
##  2 "Adams, IN"                    0                 0              0  
##  3 "Alabama"                      6                 6              0  
##  4 "Alachua, FL"                  0                 0              0  
##  5 "Alameda County~               2                 2              0  
##  6 "Alaska"                       1                 1              0  
##  7 "Alberta"                     29                29              0  
##  8 "Anhui"                      990               990              6  
##  9 "Anoka, MN"                    0                 0              0  
## 10 "Arapahoe, CO"                 0                 0              0  
## # ... with 296 more rows, and 3 more variables: `Median of deaths` <dbl>, `Mean
## #   of recovered` <dbl>, `Median of recovered` <dbl>
…
